0.002310084145234708,0.008321917570458935,0.09739102078320576
0.00225999081339337,0.008531815996010252,0.09746480529129874
0.002129955784556822,0.01740918180586517,0.09756897110070385
0.00214380545365543,0.01906164562205064,0.09764021752818688
0.002007589637524824,0.01367704426093844,0.09682563558337906
0.002005049477570586,0.01568782284361273,0.09692872141052794
0.002131228250401656,0.02379945148141633,0.09685382825082833
0.002178221523416142,0.02532777538423713,0.09687406545534667
0.0007573390459920694,0.004882212788325436,0.09335420159262198
0.0007332029040609535,0.005202760964800748,0.0933841258258063
0.0007404581342596251,0.008156709965408498,0.09345411944158187
0.0007559218879986467,0.008512426009827337,0.09345657366113157
0.0007460176150957573,0.01258413383521598,0.09317719683387211
0.0007537435552575056,0.01304231808650592,0.09320305872280854
0.0008917472764670542,0.0163545327557314,0.09311388104891055
0.0008561478240904474,0.01614909209634473,0.09306808950097244
0.00184214005109222,0.009142102341968657,0.06880266952479497
0.001811251759226848,0.009648904155325351,0.0687819438817007
0.001774499632692832,0.01802379621494817,0.06860146487096563
0.001805246642363983,0.0194927957005837,0.06859030564875188
0.001637107623788767,0.01422758337923055,0.06849109384014464
0.001642156458357215,0.01579735748784893,0.06848164904244321
0.001770804310890282,0.02225960896943532,0.06838351078712122
0.001785779859028537,0.0231962327983936,0.06836292966023765
0.0005378210314242599,0.004983308933422635,0.06939110283984015
0.0005510972797087828,0.005143352653132824,0.06938365024846745
0.00067746196342187,0.006447646056913833,0.06920803806311612
0.0007085154505496518,0.006726480987085884,0.06914969328161855
0.0005255509759086182,0.008519147715826271,0.07005966755978826
0.0005380878173008035,0.008824393585217642,0.06995611765547442
0.0005716153609956471,0.01147232261376627,0.06974512436447226
0.0005708316206560296,0.01172295509973197,0.06964921080448935
0.04294739422251215,0.2855915321491779,0.008146137565495076
0.001938675033072723,0.01132189298589739,0.001335285131493565
0.003017218330285158,0.02020623309842147,0.0009456911368234969
0.00256363687311933,0.01714363547310599,0.0007509790105900805
0.01645500979144289,0.01085340265647919,0.0002787347704044881
0.01422440054777224,0.007033228767408804,1.445838193957581e-05
0.005047531048925728,0.0002099149719954344,0.000107454787366924
0.02918433978849214,0.0123799877711643,6.782918014438861e-05
0.00538635731023176,0.009873721358653907,0.001021918133573496
0.001857281820630294,0.01071129426642537,0.0009417170438001105
2.513356903544493e-05,0.0002525155322064549,0.0002101030454074307
2.287103920291565e-05,0.0002585414114341455,0.0001929472049489331
0.0002325826981440654,0.0007891093881898559,0.0003952362206552989
0.001999097233962977,0.009747121474924628,0.001777041301120972
2.493298946422742e-05,0.0004385318221847388,0.0008898818929855437
2.861103731614198e-06,4.140901786741098e-05,0.0002022987023775681
0.0003865095633768854,0.002083334635739291,0.2020474144058925
0.0001198365082700187,0.0004484727523096946,0.04389674746567292
9.292352066833381e-05,0.000691540470489778,0.08917392542596168
0.0001507495608953516,0.0009978094605148328,0.1301648590491066
3.602962750506298e-05,0.0004509940107244286,0.02639442036639601
0.0001666193595447632,0.001151382434299888,0.07905504968381909
0.0001495539916957816,0.001444843758515811,0.1456142773511499
