This is BibTeX, Version 0.99d (TeX Live 2015/Debian)
Capacity: max_strings=35307, hash_size=35307, hash_prime=30011
The top-level auxiliary file: IEEEAerospace2016.aux
The style file: IEEEtran.bst
Reallocated singl_function (elt_size=4) to 100 items from 50.
Reallocated singl_function (elt_size=4) to 100 items from 50.
Reallocated singl_function (elt_size=4) to 100 items from 50.
Reallocated wiz_functions (elt_size=4) to 6000 items from 3000.
Reallocated singl_function (elt_size=4) to 100 items from 50.
Database file #1: IEEEAerospace2016.bib
-- IEEEtran.bst version 1.11 (2003/04/02) by Michael Shell.
-- http://www.ctan.org/tex-archive/macros/latex/contrib/supported/IEEEtran/
-- See the "IEEEtran_bst_HOWTO.pdf" manual for usage information.

Done.
You've used 19 entries,
            3975 wiz_defined-function locations,
            919 strings with 10954 characters,
and the built_in function-call counts, 13204 in all, are:
= -- 991
> -- 331
< -- 97
+ -- 177
- -- 60
* -- 618
:= -- 1956
add.period$ -- 38
call.type$ -- 19
change.case$ -- 17
chr.to.int$ -- 231
cite$ -- 19
duplicate$ -- 969
empty$ -- 1177
format.name$ -- 74
if$ -- 3045
int.to.chr$ -- 0
int.to.str$ -- 19
missing$ -- 182
newline$ -- 79
num.names$ -- 19
pop$ -- 464
preamble$ -- 1
purify$ -- 0
quote$ -- 2
skip$ -- 1031
stack$ -- 0
substring$ -- 554
swap$ -- 740
text.length$ -- 20
text.prefix$ -- 0
top$ -- 5
type$ -- 0
warning$ -- 0
while$ -- 59
width$ -- 21
write$ -- 189
