\relax 
\citation{JerryH2013,CongressOTA1989}
\citation{BekeyG2008}
\citation{FloresAbadA2014,ElleryA2008}
\citation{XuY1993}
\citation{XuW2011}
\citation{AghiliF2008}
\citation{XuW2011}
\citation{BogeT2011,MaO2012}
\citation{SchwartzJ2003}
\citation{PapadopoulosE2008,PapadopoulosE2011}
\citation{SawadaH2004}
\@writefile{toc}{\contentsline {subsubsection}{\bfseries  Abstract}{1}}
\@writefile{toc}{\contentsline {section}{\numberline {1.}Introduction}{1}}
\citation{DubowskyS1988,CarmichaelM2013}
\citation{MaO2012}
\citation{OttC2009}
\citation{DubowskyS1994}
\citation{DubowskyS1994}
\@writefile{lof}{\contentsline {figure}{\numberline {1}{\ignorespaces Schematic of the Robotics Platform and of the Space Robot. The deformation of the force-torque sensor is amplified for visualization purposes.}}{2}}
\newlabel{fig_arsr}{{1}{2}}
\@writefile{toc}{\contentsline {section}{\numberline {2.}Methodology}{2}}
\@writefile{toc}{\contentsline {subsection}{System Dynamics}{2}}
\@writefile{toc}{\contentsline {subsubsection}{Space Robot Model}{2}}
\newlabel{lagrangian_eqn}{{2}{3}}
\newlabel{em-eqn}{{12}{3}}
\newlabel{euler-lagrange}{{17}{3}}
\newlabel{composite_dynamics}{{18}{4}}
\@writefile{toc}{\contentsline {subsubsection}{Force-Torque Sensor Model}{4}}
\newlabel{fx}{{19}{4}}
\newlabel{fy}{{20}{4}}
\newlabel{tpsi}{{21}{4}}
\@writefile{toc}{\contentsline {subsubsection}{Robotic Platform Model}{4}}
\@writefile{lof}{\contentsline {figure}{\numberline {2}{\ignorespaces Screenshot of Simulation showing the SR mounted on the RP}}{4}}
\newlabel{fig_sim}{{2}{4}}
\newlabel{composite_dynamics}{{24}{4}}
\@writefile{toc}{\contentsline {subsection}{Control Strategies}{4}}
\@writefile{toc}{\contentsline {subsubsection}{HIL Simulation Tracking Controller}{4}}
\@writefile{lof}{\contentsline {figure}{\numberline {3}{\ignorespaces HIL Simulation Tracking Controller block diagram}}{5}}
\newlabel{hil_flowchart}{{3}{5}}
\@writefile{toc}{\contentsline {subsubsection}{Force-Feedback Control}{5}}
\@writefile{lof}{\contentsline {figure}{\numberline {4}{\ignorespaces Force-feedback controller block diagram}}{5}}
\newlabel{ff_flowchart}{{4}{5}}
\@writefile{toc}{\contentsline {section}{\numberline {3.}Simulation and Results}{5}}
\@writefile{toc}{\contentsline {subsection}{Simulation Method}{5}}
\@writefile{lof}{\contentsline {figure}{\numberline {5}{\ignorespaces Error terms with HIL simulation tracking controller for the ASR tracking the MT and the AT \textbf  [change d to D]}}{6}}
\newlabel{fig_trackHTvsAT}{{5}{6}}
\newlabel{linmomentum}{{30}{6}}
\@writefile{lof}{\contentsline {figure}{\numberline {6}{\ignorespaces Error terms with HIL simulation tracking controller for ASR tracking MT and Force-feedback controller for ASR at a low frequency test set}}{6}}
\newlabel{fig_trackMTvsFF}{{6}{6}}
\newlabel{angmomentum}{{31}{6}}
\@writefile{toc}{\contentsline {subsection}{HIL Simulation Verification}{6}}
\@writefile{lof}{\contentsline {figure}{\numberline {7}{\ignorespaces Error terms with HIL simulation tracking controller for ASR tracking MT and Force-feedback controller for ASR at a high frequency test set}}{7}}
\newlabel{fig_trackMTvsFF_hf}{{7}{7}}
\@writefile{lof}{\contentsline {figure}{\numberline {8}{\ignorespaces Computed linear and angular momentum components for ASR tracking MT and Force-feedback controller at a low frequency test set}}{7}}
\newlabel{fig_momentum}{{8}{7}}
\@writefile{toc}{\contentsline {subsection}{Trajectory Errors}{7}}
\@writefile{toc}{\contentsline {subsection}{Conservation of Momentum}{7}}
\@writefile{toc}{\contentsline {subsection}{Results Across Multiple System Excitation Input Sets}{7}}
\@writefile{lot}{\contentsline {table}{\numberline {1}{\ignorespaces Momentum and Generalized Coordinates RMS Error for 45 test sets using the HIL control method.}}{8}}
\newlabel{tab_tab1}{{1}{8}}
\@writefile{toc}{\contentsline {section}{\numberline {4.}Conclusion}{8}}
\citation{Yamaha}
\bibstyle{IEEEtran}
\bibdata{IEEEAerospace2016}
\bibcite{JerryH2013}{1}
\bibcite{CongressOTA1989}{2}
\@writefile{lot}{\contentsline {table}{\numberline {2}{\ignorespaces Momentum and Generalized Coordinates RMS Error for 45 test sets using the force-feedback control method.}}{9}}
\newlabel{tab_tab2}{{2}{9}}
\@writefile{toc}{\contentsline {section}{Acknowledgments}{9}}
\@writefile{toc}{\contentsline {section}{References}{9}}
\bibcite{BekeyG2008}{3}
\bibcite{FloresAbadA2014}{4}
\bibcite{ElleryA2008}{5}
\bibcite{XuY1993}{6}
\bibcite{XuW2011}{7}
\bibcite{AghiliF2008}{8}
\bibcite{BogeT2011}{9}
\bibcite{MaO2012}{10}
\bibcite{SchwartzJ2003}{11}
\bibcite{PapadopoulosE2008}{12}
\bibcite{PapadopoulosE2011}{13}
\bibcite{SawadaH2004}{14}
\bibcite{DubowskyS1988}{15}
\bibcite{CarmichaelM2013}{16}
\bibcite{OttC2009}{17}
\bibcite{DubowskyS1994}{18}
\bibcite{Yamaha}{19}
