\relax 
\citation{BekeyG2008}
\citation{FloresAbadA2014}
\citation{ElleryA2008}
\citation{XuW2011}
\@writefile{toc}{\contentsline {section}{\numberline {1}Project Summary}{1}}
\citation{JerryH2013}
\citation{CongressOTA1989}
\citation{BekeyG2008}
\citation{FloresAbadA2014}
\citation{ElleryA2008}
\citation{XuY1993}
\citation{XuW2011}
\citation{AghiliF2008}
\citation{XuW2011}
\citation{BogeT2011}
\citation{MaO2012}
\citation{SchwartzJ2003}
\citation{PapadopoulosE2008}
\citation{PapadopoulosE2011}
\citation{SawadaH2004}
\citation{DubowskyS1988}
\citation{CarmichaelM2013}
\citation{MaO2012}
\citation{OttC2009}
\citation{DubowskyS1994}
\citation{XuY1994}
\citation{DubowskyS1994}
\@writefile{toc}{\contentsline {section}{\numberline {2}Project Description}{2}}
\@writefile{toc}{\contentsline {subsection}{\numberline {2.1}Background}{2}}
\@writefile{lof}{\contentsline {figure}{\numberline {1}{\ignorespaces Screenshot of Simulation showing the ARSR mounted on the RP}}{3}}
\newlabel{pdf/sim_scr}{{1}{3}}
\@writefile{toc}{\contentsline {subsection}{\numberline {2.2}Project Thesis}{3}}
\@writefile{toc}{\contentsline {subsection}{\numberline {2.3}Objectives}{4}}
\@writefile{toc}{\contentsline {subsection}{\numberline {2.4}Approach}{4}}
\@writefile{toc}{\contentsline {subsection}{\numberline {2.5}Expected Outcomes}{4}}
\@writefile{toc}{\contentsline {subsection}{\numberline {2.6}Safety Considerations}{5}}
\@writefile{toc}{\contentsline {subsection}{\numberline {2.7}Planned Outreach Events}{5}}
\@writefile{toc}{\contentsline {section}{\numberline {3}Researchers Background and Responsibility}{6}}
\@writefile{toc}{\contentsline {section}{\numberline {4}Project Timeline}{7}}
\@writefile{toc}{\contentsline {section}{\numberline {5}Project Budget}{8}}
\@writefile{toc}{\contentsline {subsection}{\numberline {5.1}Hardware Components}{8}}
\@writefile{toc}{\contentsline {subsection}{\numberline {5.2}Research Hours}{8}}
\bibstyle{unsrt}
\bibdata{IEEEAerospace2016}
\bibcite{BekeyG2008}{1}
\bibcite{FloresAbadA2014}{2}
\bibcite{ElleryA2008}{3}
\bibcite{XuW2011}{4}
\bibcite{JerryH2013}{5}
\bibcite{CongressOTA1989}{6}
\bibcite{XuY1993}{7}
\bibcite{AghiliF2008}{8}
\bibcite{BogeT2011}{9}
\bibcite{MaO2012}{10}
\bibcite{SchwartzJ2003}{11}
\bibcite{PapadopoulosE2008}{12}
\bibcite{PapadopoulosE2011}{13}
\bibcite{SawadaH2004}{14}
\bibcite{DubowskyS1988}{15}
\bibcite{CarmichaelM2013}{16}
\bibcite{OttC2009}{17}
\bibcite{DubowskyS1994}{18}
\bibcite{XuY1994}{19}
