\relax 
\citation{AlvesJ2003}
\citation{XuW2011}
\citation{AlvesJ2003,XueleiN2014}
\citation{ChaseR2012}
\citation{CaiY2011,HalmeA1996,LiuD2008,NagaiM2008,OthmanK2012}
\citation{HalmeA1996}
\citation{LiuD2008}
\citation{CaiY2011}
\citation{YuT2014}
\citation{YuT2014}
\@writefile{toc}{\contentsline {subsubsection}{\bfseries  Abstract}{1}}
\@writefile{toc}{\contentsline {section}{\numberline {1.}Introduction}{1}}
\@writefile{toc}{\contentsline {section}{\numberline {2.}Dynamic Modeling}{1}}
\@writefile{toc}{\contentsline {section}{\numberline {3.}Control System Design}{2}}
\@writefile{toc}{\contentsline {subsection}{Task-space to Joint-space transformation}{2}}
\newlabel{Mx}{{1}{2}}
\newlabel{Fy}{{2}{2}}
\newlabel{constraint}{{3}{2}}
\newlabel{beta1}{{4}{2}}
\newlabel{pid}{{5}{2}}
\newlabel{beta2}{{6}{2}}
\newlabel{ITP}{{7}{2}}
\newlabel{ITS}{{8}{2}}
\newlabel{STP}{{9}{2}}
\newlabel{R_eq1}{{10}{2}}
\newlabel{R_eq2}{{11}{2}}
\newlabel{R_eq3}{{12}{2}}
\newlabel{R}{{13}{2}}
\bibstyle{IEEEtran}
\bibdata{references}
\bibcite{XuW2011}{1}
\newlabel{alpha1}{{14}{3}}
\newlabel{alpha2}{{15}{3}}
\@writefile{toc}{\contentsline {subsection}{Partial Feedback Linearization}{3}}
\newlabel{sepdyn}{{16}{3}}
\newlabel{unactuated}{{17}{3}}
\newlabel{actuated}{{18}{3}}
\newlabel{solved}{{19}{3}}
\newlabel{input}{{20}{3}}
\@writefile{toc}{\contentsline {section}{\numberline {4.}Simulation and Results}{3}}
\@writefile{toc}{\contentsline {subsection}{Direction Control}{3}}
\@writefile{toc}{\contentsline {subsection}{Trajectory Tracking Control}{3}}
\@writefile{toc}{\contentsline {section}{\numberline {5.}Conclusion}{3}}
\@writefile{toc}{\contentsline {subsection}{Future Development}{3}}
\@writefile{toc}{\contentsline {section}{Acknowledgments}{3}}
\@writefile{toc}{\contentsline {section}{References}{3}}
