0.0048682	0.000210082174095	0.00232661705842	-0.000859287922726	0.00386753359849
0.00995545	0.000452195995521	0.0094193300476	-0.00213690860775	0.0118472072004
0.0150796	0.000531008493775	0.0196282506432	-0.00315445859015	0.0224248435499
0.0201996	0.000401548797302	0.0311319159548	-0.00359217569455	0.0340455481784
0.02529335	9.89404714019e-05	0.0425699576921	-0.00343056407068	0.0455040430324
0.0303522	-0.000340309563493	0.0540850680262	-0.00274990262076	0.0570190162546
0.03537605	-0.000857135733825	0.0656016038496	-0.00162494731118	0.0685331975388
0.04039675	-0.00140777151405	0.0771142502133	-0.000106979607914	0.0800428151593
0.04539675	-0.00199459969728	0.0890115070545	0.00183899166615	0.091932786119
0.0505963	-0.00257911413713	0.101263519312	0.00419135884771	0.104188900057
0.0555969	-0.00308286925823	0.113082796326	0.00675878608226	0.116023124578
0.06079685	-0.00352631007704	0.12527490827	0.00970210300886	0.128239683586
0.06599615	-0.0038732126646	0.136644687977	0.012702434861	0.139640655781
0.07110045	-0.00412986726331	0.147954813974	0.0158958480304	0.151005409504
0.0762548	-0.00426759135503	0.159998662443	0.0194986993498	0.163117555229
0.0813974	-0.00425783384169	0.170849958111	0.0229195971485	0.174040536314
0.08643045	-0.00414418055104	0.181672903011	0.0265069184932	0.184937787825
0.09143475	-0.00392121329678	0.193231516385	0.0305274675652	0.196591895026
0.0966281	-0.00353531206694	0.205106872767	0.0348307453586	0.20859129553
0.10172165	-0.00296492216015	0.21652115019	0.0391014986357	0.220163343023
0.10682925	-0.00223583810217	0.227914906255	0.04351442011	0.231697903162
0.1118305	-0.00142214462244	0.238932630798	0.0479477599552	0.242841823268
0.1168647	-0.000511054882439	0.249515663836	0.0523495671629	0.253571936892
